Start: 1/12/2017 1:45:46 PM
Start: 2/23/2017 2:14:14 PM
Error: The file '\\Amidala\store\Tracy\Connie\ZFLAP010517' already exists.
Start: 4/6/2017 2:15:04 PM
ZFL File NOT copied from \\balmorra\lsfprod\law\prod\work\AP160ACHTAPE\ZFLACH040617B to \\Amidala\store\Tracy\Connie\ZFLACH040617B, moved previously.
End: 4/6/2017 2:15:04 PM

Start: 8/10/2017 1:50:24 PM
Start: 8/10/2017 2:00:57 PM
End: 8/10/2017 2:00:57 PM

